{
	"info": {
		"_postman_id": "58d26630-f927-40ba-ab5f-f56c74462fb0",
		"name": "docstock",
		"schema": "https://schema.getpostman.com/json/collection/v2.1.0/collection.json"
	},
	"item": [
		{
			"name": "Login",
			"request": {
				"auth": {
					"type": "noauth"
				},
				"method": "POST",
				"header": [],
				"body": {
					"mode": "raw",
					"raw": "{\n    \"username\":\"user\",\n    \"password\":\"user\"\n}",
					"options": {
						"raw": {
							"language": "json"
						}
					}
				},
				"url": {
					"raw": "http://localhost:8080/auth/login",
					"protocol": "http",
					"host": [
						"localhost"
					],
					"port": "8080",
					"path": [
						"auth",
						"login"
					]
				}
			},
			"response": []
		},
		{
			"name": "Logout",
			"request": {
				"auth": {
					"type": "noauth"
				},
				"method": "POST",
				"header": [
					{
						"key": "Authorization",
						"value": "Bearer {{token}}",
						"type": "text"
					}
				],
				"body": {
					"mode": "raw",
					"raw": "{\n    \"refreshToken\":\"66c6afed-326f-4b9d-af6e-82600924e4bf\",\n    \"username\":\"user\"\n}",
					"options": {
						"raw": {
							"language": "json"
						}
					}
				},
				"url": {
					"raw": "http://localhost:8080/auth/logout",
					"protocol": "http",
					"host": [
						"localhost"
					],
					"port": "8080",
					"path": [
						"auth",
						"logout"
					]
				}
			},
			"response": []
		},
		{
			"name": "Refresh",
			"request": {
				"auth": {
					"type": "noauth"
				},
				"method": "POST",
				"header": [
					{
						"key": "Authorization",
						"value": "Bearer {{token}}",
						"type": "text"
					}
				],
				"body": {
					"mode": "raw",
					"raw": "{\n    \"refreshToken\":\"66c6afed-326f-4b9d-af6e-82600924e4bf\",\n    \"username\":\"user\"\n}",
					"options": {
						"raw": {
							"language": "json"
						}
					}
				},
				"url": {
					"raw": "http://localhost:8080/auth/logout",
					"protocol": "http",
					"host": [
						"localhost"
					],
					"port": "8080",
					"path": [
						"auth",
						"logout"
					]
				}
			},
			"response": []
		},
		{
			"name": "All Users",
			"protocolProfileBehavior": {
				"disableBodyPruning": true
			},
			"request": {
				"auth": {
					"type": "bearer",
					"bearer": [
						{
							"key": "token",
							"value": "eyJhbGciOiJIUzUxMiJ9.eyJzdWIiOiJhZG1pbiIsImlhdCI6MTY2MjM3NzU0NiwiZXhwIjoxNjcxMDE3NTQ2fQ._bcSIQeEXoYj3PbrtImiwOqrCk6DcDbYMVquAr2h22LbZroUFToPTeXEv1_pZCPGRuP0djYKTqyq9PBViPz40w",
							"type": "string"
						}
					]
				},
				"method": "GET",
				"header": [],
				"body": {
					"mode": "formdata",
					"formdata": [
						{
							"key": "",
							"type": "file",
							"src": "/Users/alex/Documents/Пример_портрета_типового_клиента.docx"
						}
					],
					"options": {
						"raw": {
							"language": "json"
						}
					}
				},
				"url": {
					"raw": "http://localhost:8080/api/users",
					"protocol": "http",
					"host": [
						"localhost"
					],
					"port": "8080",
					"path": [
						"api",
						"users"
					]
				}
			},
			"response": []
		},
		{
			"name": "All Docs",
			"protocolProfileBehavior": {
				"disableBodyPruning": true
			},
			"request": {
				"auth": {
					"type": "bearer",
					"bearer": [
						{
							"key": "token",
							"value": "eyJhbGciOiJIUzUxMiJ9.eyJzdWIiOiJhZG1pbiIsImlhdCI6MTY2MjM3NzU0NiwiZXhwIjoxNjcxMDE3NTQ2fQ._bcSIQeEXoYj3PbrtImiwOqrCk6DcDbYMVquAr2h22LbZroUFToPTeXEv1_pZCPGRuP0djYKTqyq9PBViPz40w",
							"type": "string"
						}
					]
				},
				"method": "GET",
				"header": [],
				"body": {
					"mode": "formdata",
					"formdata": [
						{
							"key": "",
							"type": "file",
							"src": "/Users/alex/Documents/Пример_портрета_типового_клиента.docx"
						}
					],
					"options": {
						"raw": {
							"language": "json"
						}
					}
				},
				"url": {
					"raw": "http://localhost:8080/api/documents",
					"protocol": "http",
					"host": [
						"localhost"
					],
					"port": "8080",
					"path": [
						"api",
						"documents"
					]
				}
			},
			"response": []
		},
		{
			"name": "All Roles",
			"protocolProfileBehavior": {
				"disableBodyPruning": true
			},
			"request": {
				"auth": {
					"type": "bearer",
					"bearer": [
						{
							"key": "token",
							"value": "eyJhbGciOiJIUzUxMiJ9.eyJzdWIiOiJhZG1pbiIsImlhdCI6MTY2MjM3NzU0NiwiZXhwIjoxNjcxMDE3NTQ2fQ._bcSIQeEXoYj3PbrtImiwOqrCk6DcDbYMVquAr2h22LbZroUFToPTeXEv1_pZCPGRuP0djYKTqyq9PBViPz40w",
							"type": "string"
						}
					]
				},
				"method": "GET",
				"header": [],
				"body": {
					"mode": "formdata",
					"formdata": [
						{
							"key": "",
							"type": "file",
							"src": "/Users/alex/Documents/Пример_портрета_типового_клиента.docx"
						}
					],
					"options": {
						"raw": {
							"language": "json"
						}
					}
				},
				"url": {
					"raw": "http://localhost:8080/api/roles",
					"protocol": "http",
					"host": [
						"localhost"
					],
					"port": "8080",
					"path": [
						"api",
						"roles"
					]
				}
			},
			"response": []
		},
		{
			"name": "get document",
			"request": {
				"auth": {
					"type": "bearer",
					"bearer": [
						{
							"key": "token",
							"value": "eyJhbGciOiJIUzUxMiJ9.eyJzdWIiOiJhZG1pbiIsImlhdCI6MTY2MjM3NzU0NiwiZXhwIjoxNjcxMDE3NTQ2fQ._bcSIQeEXoYj3PbrtImiwOqrCk6DcDbYMVquAr2h22LbZroUFToPTeXEv1_pZCPGRuP0djYKTqyq9PBViPz40w",
							"type": "string"
						}
					]
				},
				"method": "GET",
				"header": [
					{
						"key": "Authorization",
						"value": "{{token}}",
						"type": "text"
					}
				],
				"url": {
					"raw": "http://localhost:8080/api/documents/05e4c8e3-2fc6-4ae1-8c68-67eeca75e4d0",
					"protocol": "http",
					"host": [
						"localhost"
					],
					"port": "8080",
					"path": [
						"api",
						"documents",
						"05e4c8e3-2fc6-4ae1-8c68-67eeca75e4d0"
					]
				}
			},
			"response": []
		},
		{
			"name": "download",
			"request": {
				"method": "GET",
				"header": [
					{
						"key": "Authorization",
						"value": "Bearer {{token}}",
						"type": "text"
					}
				],
				"url": {
					"raw": "http://localhost:8080/api/documents/download/05e4c8e3-2fc6-4ae1-8c68-67eeca75e4d0",
					"protocol": "http",
					"host": [
						"localhost"
					],
					"port": "8080",
					"path": [
						"api",
						"documents",
						"download",
						"05e4c8e3-2fc6-4ae1-8c68-67eeca75e4d0"
					]
				}
			},
			"response": []
		},
		{
			"name": "http://localhost:8080/register",
			"protocolProfileBehavior": {
				"disabledSystemHeaders": {
					"content-type": true
				}
			},
			"request": {
				"method": "POST",
				"header": [
					{
						"key": "Content-Type",
						"value": "application/json",
						"type": "text"
					},
					{
						"key": "Authorization",
						"value": "Bearer {{token}}",
						"type": "text"
					}
				],
				"body": {
					"mode": "raw",
					"raw": "{\n  \"username\": \"user\",\n  \"password\": \"user\"\n}"
				},
				"url": {
					"raw": "http://localhost:8080/auth/register",
					"protocol": "http",
					"host": [
						"localhost"
					],
					"port": "8080",
					"path": [
						"auth",
						"register"
					]
				}
			},
			"response": []
		},
		{
			"name": "http://localhost:8080/login",
			"event": [
				{
					"listen": "test",
					"script": {
						"exec": [
							"var jsonData = JSON.parse(responseBody);",
							"pm.environment.set(\"token\", 'Bearer ' + jsonData.data.accessToken);",
							"pm.environment.set(\"refreshToken\", jsonData.data.refreshToken);",
							"",
							"pm.test(\"Status code is 200\", () => {",
							"  pm.expect(pm.response.code).to.eql(200);",
							"});"
						],
						"type": "text/javascript"
					}
				}
			],
			"protocolProfileBehavior": {
				"disabledSystemHeaders": {
					"content-type": true
				}
			},
			"request": {
				"method": "POST",
				"header": [
					{
						"key": "Content-Type",
						"value": "application/json",
						"type": "text"
					}
				],
				"body": {
					"mode": "raw",
					"raw": "{\n  \"username\": \"admin\",\n  \"password\": \"password\"\n}"
				},
				"url": {
					"raw": "http://localhost:8080/auth/login",
					"protocol": "http",
					"host": [
						"localhost"
					],
					"port": "8080",
					"path": [
						"auth",
						"login"
					]
				}
			},
			"response": []
		},
		{
			"name": "UPLOAD DOCUMENT",
			"event": [
				{
					"listen": "test",
					"script": {
						"exec": [
							"var jsonData = JSON.parse(responseBody);",
							"pm.environment.set(\"fileId\", jsonData.data);",
							"",
							"pm.test(\"Status code is 200\", () => {",
							"  pm.expect(pm.response.code).to.eql(200);",
							"});"
						],
						"type": "text/javascript"
					}
				}
			],
			"request": {
				"method": "POST",
				"header": [
					{
						"key": "Authorization",
						"value": "Bearer {{token}}",
						"type": "text"
					}
				],
				"body": {
					"mode": "formdata",
					"formdata": [
						{
							"key": "file",
							"type": "file",
							"src": "/Users/alex/Documents/Пример_портрета_типового_клиента.docx"
						},
						{
							"key": "convertedFileName",
							"value": "fileName",
							"type": "text"
						},
						{
							"key": "description",
							"value": "description",
							"type": "text"
						}
					]
				},
				"url": {
					"raw": "http://localhost:8080/api/documents/upload",
					"protocol": "http",
					"host": [
						"localhost"
					],
					"port": "8080",
					"path": [
						"api",
						"documents",
						"upload"
					]
				}
			},
			"response": []
		}
	]
}